<svg xmlns="http://www.w3.org/2000/svg" viewBox="0 0 38.05 46.06">
<path d="M25.86,3H7A4,4,0,0,0,3,7v32a4,4,0,0,0,4,4H31a4,4,0,0,0,4-4V12.19ZM15,25l-4-4L7,25V7h8Zm8-10V5L33,15Z" fill="#000000" />
<path d="M25.86,3,35,12.19V39.05a4,4,0,0,1-4,4H7a4,4,0,0,1-4-4V7A4,4,0,0,1,7,3H25.86M23,15H33L23,5V15M7,25l4-4,4,4V7H7V25M25.86,0H7A7,7,0,0,0,0,7v32a7,7,0,0,0,7,7H31a7,7,0,0,0,7-7V12.19a3,3,0,0,0-.88-2.12L28,.88A3,3,0,0,0,25.86,0ZM10,10h2V18.2a3,3,0,0,0-2,0V10Z" fill="#488ebd" />
</svg>