<svg xmlns="http://www.w3.org/2000/svg" viewBox="0 0 39.54 41.18">
<path d="M19.77,3A16,16,0,0,1,31.08,7.68l4.52,4.53a3.2,3.2,0,0,1,0,4.52l-3.39,3.39a3.2,3.2,0,0,1-4.53,0L24.3,16.73a3.21,3.21,0,0,1,0-4.52l3.32-3.32a12.81,12.81,0,0,0-15.68,0l3.32,3.31a3.2,3.2,0,0,1,0,4.52l-3.39,3.39a3.2,3.2,0,0,1-4.52,0L3.94,16.73a3.2,3.2,0,0,1,0-4.52L8.46,7.68A16,16,0,0,1,19.77,3m0-3A18.87,18.87,0,0,0,6.34,5.56L1.82,10.08a6.2,6.2,0,0,0,0,8.77l3.39,3.39a6.2,6.2,0,0,0,8.77,0l3.39-3.39a6.2,6.2,0,0,0,0-8.77l-.45-.45a9.79,9.79,0,0,1,5.7,0l-.45.45a6.21,6.21,0,0,0,0,8.76l3.4,3.39a6.2,6.2,0,0,0,8.77,0l3.39-3.39a6.2,6.2,0,0,0,0-8.77L33.2,5.56A18.87,18.87,0,0,0,19.77,0Z" fill="#488ebd" />
<path d="M24.57,19v3.33a11.2,11.2,0,0,1,9.6,11.07v4.8H5.38v-4.8A11.2,11.2,0,0,1,15,22.32V19h3.2v3.2h3.2V19h3.2m-4.8,16a4.8,4.8,0,1,0-4.8-4.8,4.8,4.8,0,0,0,4.8,4.8m4.8-19h-3.2a3,3,0,0,0-1.6.46,3,3,0,0,0-1.6-.46H15a3,3,0,0,0-3,3v1a14.27,14.27,0,0,0-9.6,13.42v4.8a3,3,0,0,0,3,3H34.17a3,3,0,0,0,3-3v-4.8A14.27,14.27,0,0,0,27.57,20V19a3,3,0,0,0-3-3Zm-4.8,16a1.8,1.8,0,1,1,1.8-1.8,1.8,1.8,0,0,1-1.8,1.8Z" fill="#488ebd" />
<path d="M35.61,12.2,31.08,7.68a16,16,0,0,0-22.62,0L3.94,12.2a3.2,3.2,0,0,0,0,4.52l3.39,3.39a3.2,3.2,0,0,0,4.52,0l3.39-3.39a3.2,3.2,0,0,0,0-4.52L11.93,8.89a12.81,12.81,0,0,1,15.68,0l-3.32,3.32a3.21,3.21,0,0,0,0,4.52l3.39,3.39a3.2,3.2,0,0,0,4.53,0l3.39-3.39A3.2,3.2,0,0,0,35.61,12.2Z" fill="#000000" />
<path d="M24.57,22.32V19h-3.2v3.2h-3.2V19H15v3.33a11.2,11.2,0,0,0-9.6,11.07v4.8H34.17v-4.8A11.2,11.2,0,0,0,24.57,22.32ZM19.77,35a4.8,4.8,0,1,1,4.8-4.8A4.8,4.8,0,0,1,19.77,35Z" fill="#000000" />
</svg>