<svg xmlns="http://www.w3.org/2000/svg" viewBox="0 0 32.61 33.45">
<path d="M9.65,11.45c.73,0,1.33.95,1.33,2.11V28.34c0,1.17-.6,2.11-1.33,2.11H4.33C3.6,30.45,3,29.51,3,28.34V13.56c0-1.17.6-2.11,1.33-2.11H9.65m0-3H4.33C1.9,8.45,0,10.69,0,13.56V28.34c0,2.87,1.9,5.11,4.33,5.11H9.65c2.43,0,4.33-2.25,4.33-5.11V13.56c0-2.87-1.9-5.11-4.33-5.11Z" fill="#488ebd" />
<path d="M19,3c.73,0,1.33.95,1.33,2.11V28.34c0,1.17-.6,2.11-1.33,2.11H13.64c-.73,0-1.33-.95-1.33-2.11V5.11c0-1.17.6-2.11,1.33-2.11H19m0-3H13.64C11.22,0,9.31,2.25,9.31,5.11V28.34c0,2.87,1.9,5.11,4.33,5.11H19c2.43,0,4.33-2.25,4.33-5.11V5.11C23.3,2.25,21.4,0,19,0Z" fill="#488ebd" />
<path d="M28.28,13.56c.73,0,1.33.95,1.33,2.11V28.34c0,1.17-.6,2.11-1.33,2.11H23c-.73,0-1.33-.95-1.33-2.11V15.67c0-1.17.6-2.11,1.33-2.11h5.32m0-3H23c-2.43,0-4.33,2.25-4.33,5.11V28.34c0,2.87,1.9,5.11,4.33,5.11h5.32c2.43,0,4.33-2.25,4.33-5.11V15.67c0-2.87-1.9-5.11-4.33-5.11Z" fill="#488ebd" />
<path d="M9.65,11.45H4.33c-.73,0-1.33.95-1.33,2.11V28.34c0,1.17.6,2.11,1.33,2.11H9.65c.73,0,1.33-.95,1.33-2.11V13.56C11,12.39,10.39,11.45,9.65,11.45Z"/>
<path d="M19,3H13.64c-.73,0-1.33.95-1.33,2.11V28.34c0,1.17.6,2.11,1.33,2.11H19c.73,0,1.33-.95,1.33-2.11V5.11C20.3,3.95,19.7,3,19,3Z"/>
<path d="M28.28,13.56H23c-.73,0-1.33.95-1.33,2.11V28.34c0,1.17.6,2.11,1.33,2.11h5.32c.73,0,1.33-.95,1.33-2.11V15.67C29.61,14.51,29,13.56,28.28,13.56Z"/>
</svg>